{
  "project_info": {
    "project_number": "654541298720",
    "firebase_url": "https://project1-e129e.firebaseio.com",
    "project_id": "project1-e129e",
    "storage_bucket": "project1-e129e.appspot.com"
  },
  "client": [
    {
      "client_info": {
        "mobilesdk_app_id": "1:654541298720:android:e06a82b20391ce2b",
        "android_client_info": {
          "package_name": "com.example.shubh.project_1"
        }
      },
      "oauth_client": [
        {
          "client_id": "654541298720-up3nukvup4eu1v6akcgk2mcqr0cfkcnd.apps.googleusercontent.com",
          "client_type": 1,
          "android_info": {
            "package_name": "com.example.shubh.project_1",
            "certificate_hash": "32094b3102ee92446c10345e7acb93d1a55fbd97"
          }
        },
        {
          "client_id": "654541298720-cfe83eduh9b5ta9kbgj20ads360uqgkm.apps.googleusercontent.com",
          "client_type": 3
        }
      ],
      "api_key": [
        {
          "current_key": "AIzaSyAUQLWEzfSF2Onn6bPiE0zEwv_Cc2f-E8E"
        }
      ],
      "services": {
        "analytics_service": {
          "status": 1
        },
        "appinvite_service": {
          "status": 2,
          "other_platform_oauth_client": [
            {
              "client_id": "654541298720-cfe83eduh9b5ta9kbgj20ads360uqgkm.apps.googleusercontent.com",
              "client_type": 3
            }
          ]
        },
        "ads_service": {
          "status": 2
        }
      }
    }
  ],
  "configuration_version": "1"
}